<svg width="176" height="37" viewBox="0 0 176 37" fill="none" xmlns="http://www.w3.org/2000/svg">
<g opacity="0.5" clip-path="url(#clip0_330_2665)">
<path opacity="0.4" d="M0.441406 18.0628C0.441406 18.0628 14.3176 17.6393 23.2625 17.6393C32.2075 17.6393 39.891 9.16797 47.2305 9.16797C54.5699 9.16797 57.8956 17.1451 70.625 17.1451C83.3544 17.1451 84.7305 12.8389 90.2351 12.8389C95.7397 12.8389 98.0333 17.1451 106.176 17.1451C114.318 17.1451 123.377 4.79114 128.079 4.79114C134.157 4.79114 133.813 13.0506 150.9 16.8627C153.423 17.4275 165.694 18.0628 175.442 18.0628" fill="white"/>
<path opacity="0.4" d="M175.556 18.0627C165.809 18.0627 153.538 18.698 151.015 19.2628C133.928 23.0749 134.272 31.3344 128.194 31.3344C123.492 31.3344 114.432 18.9804 106.29 18.9804C98.148 18.9804 95.9691 23.2866 90.3498 23.2866C84.8452 23.2866 83.3544 18.9804 70.7397 18.9804C58.125 18.9804 54.6846 26.9575 47.3452 26.9575C40.0057 26.9575 32.3222 18.4862 23.3772 18.4862C14.4323 18.4862 0.441406 18.0627 0.441406 18.0627" fill="white"/>
<path opacity="0.6" d="M175.557 18.0627C162.827 18.0627 159.846 33.5228 149.295 33.5228C141.726 33.5228 134.043 20.957 124.18 20.957C114.777 20.957 114.203 26.3928 108.469 26.3928C102.506 26.3928 99.4096 18.6274 90.35 18.6274C79.5701 18.6274 76.9325 36.2053 67.7582 36.2053C58.4691 36.2053 54.3407 19.8275 45.6251 19.8275C36.9095 19.8275 36.2214 22.5101 28.7672 22.5101C21.3131 22.5101 14.547 18.5568 6.86353 18.5568" fill="white"/>
<path d="M0.441406 18.063C2.50563 17.9924 4.68453 17.7806 6.5194 17.2158C8.35427 16.6511 10.0745 15.8746 11.68 14.9568C13.1708 14.1097 14.6616 13.1214 16.1524 12.2037C17.6433 11.2859 19.1341 10.3682 21.0836 9.66229C22.9185 8.95634 25.0974 8.60337 27.2763 8.67397C29.4552 8.74456 31.5194 9.4505 33.2396 10.0858C36.7947 11.4977 39.891 13.2626 43.4461 14.6745C45.1663 15.3804 47.1158 15.8746 49.0653 16.2275C51.0149 16.5099 53.0791 16.5099 55.1433 16.2275C57.0929 15.9452 58.9278 15.3804 60.5333 14.6039C61.336 14.1803 62.1388 13.7567 63.0562 13.4038C63.9736 12.9802 65.0057 12.6978 66.1525 12.5566C67.2993 12.4155 68.4461 12.4155 69.4782 12.6978C70.5103 12.9096 71.5424 13.2626 72.4599 13.6156C74.2948 14.3921 75.7856 15.2392 77.5058 16.0157C79.226 16.7217 81.0608 17.2864 83.0104 17.5688C84.9599 17.7806 87.0241 17.7806 88.9737 17.357C90.8085 16.9335 92.5287 16.1569 93.9049 15.2392C95.3957 14.3215 96.6572 13.3332 98.0333 12.3449C99.4095 11.3565 100.786 10.2976 102.506 9.4505C104.226 8.60337 106.405 8.03862 108.698 8.10922C110.992 8.10922 113.056 8.74456 114.776 9.66229C116.497 10.5094 117.758 11.5683 119.134 12.5566C120.396 13.545 121.772 14.6039 123.263 15.3804C123.607 15.5922 124.065 15.7334 124.524 15.9452C124.983 16.0863 125.442 16.2275 125.786 16.3687C126.244 16.4393 126.703 16.5805 127.162 16.6511C127.621 16.6511 128.194 16.7217 128.653 16.7217C130.717 16.7217 132.781 16.4393 134.616 15.8746C136.451 15.3804 138.171 14.6039 140.006 13.8979C141.841 13.192 143.79 12.6272 145.969 12.486C148.148 12.3449 150.327 12.6272 152.277 13.192C156.176 14.2509 159.501 15.8746 163.286 17.0041C165.121 17.5688 167.185 17.9924 169.249 17.9924L175.556 18.063L169.249 18.1336C167.07 18.1336 165.006 17.7806 163.171 17.2158C159.272 16.1569 155.946 14.5333 152.047 13.545C150.098 13.0508 148.033 12.7684 146.084 12.9802C144.02 13.1214 142.185 13.6861 140.465 14.3921C138.744 15.098 137.024 15.8746 135.075 16.4393C133.125 17.0041 130.946 17.357 128.767 17.357C128.194 17.357 127.621 17.2864 127.162 17.2864C126.588 17.2158 126.13 17.0747 125.556 17.0041C125.098 16.8629 124.524 16.7217 124.065 16.5099C123.607 16.2981 123.148 16.0863 122.689 15.8746C121.084 15.0274 119.708 13.9685 118.446 12.9802C117.185 11.9919 115.809 10.933 114.203 10.1564C112.598 9.37991 110.763 8.81516 108.813 8.81516C106.864 8.74456 104.914 9.23872 103.309 10.0153C101.703 10.7918 100.327 11.7801 99.0654 12.7684C97.804 13.7567 96.4278 14.8156 94.937 15.7334C93.4462 16.6511 91.6113 17.4982 89.5471 17.9924C85.3039 18.9101 80.4874 18.1336 77.0471 16.5099C75.3269 15.7334 73.7214 14.8156 72.0012 14.1097C71.1984 13.7567 70.281 13.4744 69.3635 13.2626C68.4461 13.0508 67.414 13.0508 66.4966 13.192C64.547 13.4038 63.0562 14.3215 61.336 15.098C59.6158 15.9452 57.6663 16.5805 55.4874 16.8629C53.3085 17.1453 51.1296 17.1453 48.9507 16.8629C46.8864 16.5099 44.9369 15.9452 43.102 15.2392C39.547 13.8273 36.4506 11.9919 32.8956 10.58C31.1754 9.87407 29.3405 9.23872 27.2763 9.16813C25.2121 9.09753 23.1479 9.4505 21.4277 10.0153C19.5928 10.6506 18.102 11.4977 16.4965 12.4155C15.0057 13.3332 13.5148 14.2509 11.9093 15.098C10.3038 15.9452 8.58362 16.7217 6.63408 17.2864C4.68453 17.8512 2.50563 18.063 0.441406 18.063Z" fill="white"/>
<path d="M175.327 18.0627L169.02 18.1333C166.955 18.1333 164.891 18.5569 163.056 19.1216C159.272 20.2511 155.946 21.8748 152.047 22.9337C150.098 23.4279 147.919 23.7808 145.74 23.6396C143.561 23.4984 141.497 22.9337 139.776 22.2278C137.942 21.5218 136.336 20.7453 134.386 20.2511C132.552 19.6864 130.487 19.404 128.423 19.404C127.964 19.404 127.391 19.4746 126.932 19.4746C126.474 19.5452 126.015 19.6864 125.556 19.757C125.097 19.8982 124.639 20.0393 124.295 20.1805C123.951 20.3923 123.492 20.5335 123.033 20.7453C121.542 21.5924 120.166 22.5807 118.905 23.569C117.643 24.5574 116.267 25.6163 114.547 26.4634C112.941 27.3105 110.763 27.9459 108.469 28.0165C106.175 28.0871 103.997 27.5223 102.276 26.6752C100.556 25.8281 99.18 24.8397 97.8038 23.7808C96.4277 22.7925 95.1662 21.7336 93.6754 20.8865C92.1846 19.9687 90.579 19.1922 88.7442 18.7687C86.9093 18.3451 84.8451 18.3451 82.7809 18.5569C80.8313 18.7687 78.9965 19.3334 77.2763 20.1099C75.5561 20.8159 74.0653 21.7336 72.2304 22.5101C71.313 22.9337 70.3955 23.2161 69.2487 23.4279C68.2166 23.6396 66.9552 23.6396 65.923 23.569C64.7763 23.4279 63.7441 23.1455 62.8267 22.7219C61.9093 22.3689 61.1065 21.8748 60.3038 21.5218C58.6983 20.7453 56.8634 20.1099 54.9138 19.8982C52.9643 19.6158 50.7854 19.6158 48.8359 19.8982C46.8863 20.1805 44.9368 20.7453 43.2166 21.3806C39.6615 22.7219 36.5652 24.4868 33.0101 25.9692C31.1753 26.6752 29.2257 27.3105 27.0468 27.3811C24.8679 27.4517 22.689 27.0987 20.8542 26.3928C19.0193 25.7575 17.4138 24.7691 15.923 23.8514C14.4321 22.9337 13.056 21.9454 11.4505 21.0983C9.95964 20.2511 8.23945 19.404 6.28991 18.8392C4.34036 18.2745 2.27614 18.0627 0.211914 17.9921C2.27614 17.9921 4.45504 18.2745 6.40459 18.7687C8.35413 19.3334 10.0743 20.1099 11.6798 20.9571C13.2853 21.8042 14.6615 22.7925 16.267 23.6396C17.7578 24.5574 19.3633 25.4045 21.1982 26.0398C23.0331 26.6752 25.0973 26.9576 27.0468 26.887C29.1111 26.8164 30.9459 26.181 32.6661 25.4751C36.1065 24.0632 39.2028 22.2278 42.8725 20.8159C44.7074 20.1099 46.657 19.4746 48.7212 19.1922C50.9001 18.8392 53.079 18.9098 55.2579 19.1922C57.4368 19.4746 59.3863 20.1099 61.1065 20.9571C62.8267 21.7336 64.3175 22.6513 66.2671 22.8631C67.1845 22.9337 68.2166 22.9337 69.1341 22.7925C70.0515 22.5807 70.9689 22.2984 71.7717 21.9454C73.4919 21.2394 74.9827 20.3217 76.8176 19.5452C80.2579 17.9921 84.9598 17.145 89.3176 18.0627C91.3818 18.5569 93.2167 19.404 94.7075 20.3217C96.1983 21.2394 97.5745 22.2984 98.8359 23.2867C100.212 24.275 101.474 25.2633 103.079 26.0398C104.685 26.8164 106.519 27.3105 108.584 27.2399C110.533 27.2399 112.483 26.6752 113.974 25.8986C115.579 25.1221 116.841 24.0632 118.217 23.0749C119.478 22.0866 120.854 21.0277 122.46 20.1805C122.919 19.9687 123.377 19.757 123.836 19.5452C124.295 19.404 124.868 19.1922 125.327 19.051C125.9 18.9804 126.359 18.8392 126.932 18.7687C127.506 18.7687 128.079 18.6981 128.538 18.6981C130.717 18.6981 132.896 19.051 134.845 19.6158C136.795 20.1805 138.515 20.9571 140.235 21.663C141.955 22.3689 143.905 22.9337 145.854 23.0749C147.919 23.2161 149.983 22.9337 151.932 22.5101C155.831 21.5218 159.157 19.8982 163.056 18.8392C165.006 18.2745 167.07 17.9215 169.134 17.9215L175.327 18.0627Z" fill="white"/>
</g>
<defs>
<clipPath id="clip0_330_2665">
<rect width="175.115" height="36.1441" fill="white" transform="translate(0.441406 -0.00878906)"/>
</clipPath>
</defs>
</svg>
